{
  "demos": {
    "picsart": {
      "demo_type": "image",
      "title": "Picsart demo",
      "description": "Picsart demo description",
      "input_params": [{
          "param_type":"file",
          "label":"label",
          "name":"input_file_name",
          "is_visible": true,
          "preset_value":"",
          "description":"Upload a photo of a person or select one of the examples."
        },
        {
          "param_type":"submit",
          "label":"Upload",
          "name":"upload_image",
          "is_visible": true,
          "preset_value":"",
          "description":""
        },
        {
          "param_type":"image",
          "label":"label",
          "name":"input_name1",
          "is_visible": true,
          "preset_value":"/images/picsart/1523.jpg",
          "description":""
        },
        {
          "param_type":"image",
          "label":"label",
          "name":"input_name2",
          "is_visible": true,
          "preset_value":"/images/picsart/1674.jpg",
          "description":""
        },
        {
          "param_type":"image",
          "label":"label",
          "name":"input_name3",
          "is_visible": true,
          "preset_value":"/images/picsart/1752.jpg",
          "description":"description"
        },
        {
          "param_type":"image",
          "label":"label",
          "name":"input_name4",
          "is_visible": true,
          "preset_value":"/images/picsart/1868.jpg",
          "description":""
        }
      ],
      "output_params": [{
        "param_type":"image",
        "label":"",
        "name":"result_image",
        "is_visible": true,
        "description":""
      }]
    },
    "sentiment_demo_eng":{
      "demo_type": "text",
      "title": "Sentiment analysis (Eng)",
      "description": "Sentiment analysis is contextual mining of text which identifies and extracts subjective information in source material. <br>For English we created a model, which determines whether a review is positive or negative.",
      "input_params": [{
          "param_type":"dropdown_textarea",
          "label":"Examples",
          "name":"text",
          "is_visible": true,
          "preset_value":"I love these earrings. The pineapples sparkle and add a beautiful touch to a outfit!<br>Cute, but cheaply made. Gems are lose in the prongs.<br>I was very disappointed in these earrings. As you can see from the attached pictures it came missing one of the green stones. They had fallen out already.<br>This product is nicely wrapped, and is exactly as described. It has a natural smell that I think some may not like. It smells to me like a can of black olives.<br>Excellent . Perfect carefully packing.Shea butter feel smooth and pure.<br>I love this product. It is what they say it is. Pure, unrefined authentic shea butter. It was very easy to incorporate my essential oils into it and even easier to whip it.<br>Very disappointed. If you want to see a date on a watch, don’t bother buying this version. If you are happy with your charge 2 clock faces, don’t buy this version.<br>Buggy and crashed constantly. After an update, it now only vibrates and doesn’t display anything. Cannot be restarted. Tech support has been unresponsive in escalation and will need to be returned.<br>These headphones have amazing range, they really bring out the \"flavor\" of the music. I wear them all day at work both Bluetooth and corded, at my desk and at the gym, and I only charge them about once a week. Well worth the hefty price.<br>I give it five stars. My wife hates them she would give it 1. I put them on and that’s it. I can’t hear her any more.<br>I have four of these. I love them. I give them as gifts to every friend who has a new baby.<br>This film is a family favorite. We watch it once a year.",
          "description":""
        },
        {
          "param_type":"submit",
          "label":"determine",
          "name":"upload_text",
          "is_visible": true,
          "preset_value":"",
          "description":""
        }
      ],
      "output_params": [{
        "param_type":"output_text",
        "label":"Grade:",
        "name":"predicted_text",
        "is_visible": true,
        "description":""
      }]
    },
    "ner_eng":{
      "demo_type": "text",
      "title": "Named entity recogntion (Eng)",
      "description": "Named-entity recognition (NER) (also known as entity identification, entity chunking and entity extraction) is a subtask of information extraction that seeks to locate and classify named entity mentions in unstructured text into pre-defined categories such as the person names, organizations, locations, medical codes, time expressions, quantities, monetary values, percentages, etc. <br><br>This model combines different types of embeddings.",
      "input_params": [{
          "param_type":"dropdown_textarea",
          "label":"Examples",
          "name":"text",
          "is_visible": true,
          "preset_value":"Prime Minister Theresa May of Britain is fighting for her political life after a right-wing faction in her party triggered a no confidence vote . She then faced tough questions and criticisms from other lawmakers in Parliament .<br>First , she argued , changing leaders so close to the March 29 deadline for withdrawal from the European Union could open the door to something worse — a Labour government or a reversal of Brexit .<br>And only weeks later , Voice of America fired the chief of its Mandarin-language section after a billionaire Chinese exile who is championed by some on the American right and is known for making unsubstantiated charges against Beijing was promised a three-hour live broadcast .<br>It was confirmed on Thursday that Michael Spavor , a businessman , had been detained in addition to former diplomat Michael Kovrig .<br>However , Mr Trump's own officials frowned on the idea , with US Assistant Attorney General John Demers remarking : \" What we do at the Justice Department is law enforcement. We don't do trade . \"<br>Theresa May is heading to Brussels for an EU summit , the morning after surviving a vote of confidence .<br>Jeff Bezos had been the VP of a Wall Street firm before moving to Seattle to start an internet company after feeling like he missed the boat with the online boom .<br>Microsoft was founded back in the mid-70s in Albuquerque , New Mexico . It took about ten years until it completed its Initial Public Offering ( IPO ) , which raised $61 million at the time – famously making Bill Gates super rich .<br>Its founder , Jack Ma , is one of the richest people in the world , and one of the most influential in China .<br>Robot Boris featured on Russian TV and was apparently able to walk , talk and dance .",
          "description":""
        },
        {
          "param_type":"submit",
          "label":"Recognize",
          "name":"upload_text",
          "is_visible": true,
          "preset_value":"",
          "description":""
        }
      ],
      "output_params": [{
        "param_type":"output_text",
        "label":"Review",
        "name":"predicted_text",
        "is_visible": true,
        "description":""
      }]
    },
    "ner_rus":{
      "demo_type": "text",
      "title": "Named entity recogntion (Rus)",
      "description": "Распознавание именованных сущностей - это задача поиска и классификации именованных объектов, таких как географические названия, имена людей, названия организаций и др. <br>Данная модель извлекает 3 типа сущностей: <br>Географические названия (Location); <br>Названия организаций (Org); <br>Имена людей (Person). <br><br>Вводить до 50 токенов",
      "input_params": [{
          "param_type":"dropdown_textarea",
          "label":"Примеры текста",
          "name":"text",
          "is_visible": true,
          "preset_value":"С октября 1897 года до середины января 1898 года Горький жил в посёлке Каменка.<br>В 1899 году Горький впервые появляется в Санкт-Петербурге.<br>В Америке Горький с Андреевой пробыли до сентября.<br>Круизные теплоходы по Волге с иностранными туристами на борту проходили через Горький ночью, без высадки на берег.<br>Наталья Михайловна Водянова родилась 28 февраля 1982 года в Горьком (ныне Нижний Новгород).<br>В работе съезда принял участие Президент Российской Федерации Владимир Путин.<br>Из Владимира войско прибыло в Муром, где с ним соединились союзные татарские отряды под руководством хана Шигалея, выступившего из Касимова.<br>С 1719 года Владимир — центр провинции Московской губернии.<br>В этой игре Владимир получил рецидив травмы.<br>Так Жуковский выразил своё восхищение своеобразием местных пейзажей.<br>Жуковский стал двенадцатым наукоградом России.",
          "description":""
        },
        {
          "param_type":"submit",
          "label":"Распознать",
          "name":"upload_text",
          "is_visible": true,
          "preset_value":"",
          "description":""
        }
      ],
      "output_params": [{
        "param_type":"output_text",
        "label":"Результат",
        "name":"predicted_text",
        "is_visible": true,
        "description":""
      }]
    },
    "tpe":{
      "demo_type": "text",
      "title": "Topic Identification (Eng)",
      "description": "Topic identification is a task of labeling a text with its categories (or topics). <br> Here we present a model, which can distinguish between 5 categories: <br><br> politics; <br> business; <br> technics; <br> entertainment; <br> sport. <br>",
      "input_params": [{
          "param_type":"dropdown_textarea",
          "label":"Examples",
          "name":"text",
          "is_visible": true,
          "preset_value":"A \"gold-plated\" visa scheme allowing foreign investors a fast-track to settling in Britain remains open, the Home Office has clarified.<br>A growing number of companies across China have announced new policies requiring the exclusive use of Huawei products, and in some cases penalizing employees who purchase iPhones, in what appears to be a growing domestic movement to support the Chinese tech giant after the arrest of one of its top executives in Canada.<br>Google CEO Sundar Pichai appeared before lawmakers on Capitol Hill on Tuesday, where he faced a barrage of questions about data privacy and security.<br>German luxury car maker Daimler, parent company of Mercedes-Benz, on Tuesday said it would buy battery cells worth more than 20 billion euros ($22.75 billion) by 2030 as it readies mass production of hybrid and electric vehicles.<br>Amazon has sacked workers it believes had been misusing internal data on high-selling products, the Wall Street Journal (WSJ) reports.<br>British band Queen’s most well-known tune, “Bohemian Rhapsody,” has become the 20th century’s most streamed song.<br>Meghan Markle made a surprise appearance at the British Fashion Awards on Monday wearing a sleek one-shoulder black Givenchy dress — but it was her nail color that made headlines.<br>Manchester City midfielder David Silva will be out for \"a few weeks\" with injury, says manager Pep Guardiola.<br>India clinched a dramatic 31-run victory in the first Test against Australia to claim only their sixth Test win down under.",
          "description":""
        },
        {
          "param_type":"submit",
          "label":"Recognize",
          "name":"upload_text",
          "is_visible": true,
          "preset_value":"",
          "description":""
        }
      ],
      "output_params": [{
        "param_type":"output_text",
        "label":"Category",
        "name":"predicted_text",
        "is_visible": true,
        "description":""
      }]
    },
    "tpr":{
      "demo_type": "text",
      "title": "Topic Identification (Rus)",
      "description": "Определение тематики текста - это задача отнесения текста к набору заранее определённых категорий. <br>Мы представляем модель, которая различает 22 категории: <div class=\"text_column\"><br>Оружие;<br>Из жизни;<br>Легпром;<br>Культура;<br>Бывший СССР;</div><div class=\"text_column\"><br>Ценности;<br>ЧМ-2014;<br>МедНовости;<br>Спорт;<br>Экономика;<br>Путешествия;</div><div class=\"text_column\"><br>Интернет и СМИ;<br>Наука и техника;<br>Силовые структуры;<br>Культпросвет;<br>Библиотека;</div><div class=\"text_column\"><br>Россия;<br>Сочи;<br>Дом;<br>Крым;<br>Бизнес;<br>Мир.</div>",
      "input_params": [{
          "param_type":"dropdown_textarea",
          "label":"Примеры",
          "name":"text",
          "is_visible": true,
          "preset_value":"Президент России Владимир Путин предложил оказывать дополнительную единовременную материальную помощь ветеранам Великой Отечественной войны в преддверии Дня Победы ежегодно, а не только к юбилейным датам. Об этом сообщает ТАСС в среду, 12 декабря.<br>В Заволжске (Ивановская область) выпал черный снег, передает «Ивтелерадио».<br>Польские фермеры, одетые во флуоресцентные желтые жилеты, заблокировали одну из крупнейших трасс страны неподалеку от Варшавы в знак протеста против аграрной политики государства.<br>В Армении прошли первые в ее истории внеочередные парламентские выборы. Официально результаты пока не объявлены, но после подсчета 100 процентов бюллетеней блок «Мой шаг» Никола Пашиняна одержал победу в условиях абсолютного доминирования.<br>Средний курс доллара в 2019-м и 2020 году будет равен 65-70 рублям, считают аналитики Сбербанка.<br>Ученые Ратгерского университета (США) обнаружили, что в кофе содержится вещество, которое вместе с кофеином способно затормозить развитие болезни Паркинсона и деменции с тельцами Леви.<br>Корпорация Samsung представила Galaxy A8s. Это первый смартфон компании с экраном Infinity-O, в котором предусмотрено отверстие в активной части дисплея под фронтальную камеру.<br>Американский журнал Forbes составил ежегодный список самых высокооплачиваемых писателей в США. Лидером рейтинга стал Джеймс Паттерсон, автор детективов об инспекторе Алексе Кроссе.<br>Российский форвард «Вашингтон Кэпиталс» Александр Овечкин отметился хет-триком в матче Национальной хоккейной лиги (НХЛ) против «Детройт Ред Уингс» и превзошел по данному показателю соотечественника Павла Буре.<br>Туроператор «Жемчужная река» продавал туристам билеты в Китай на несуществующие рейсы.<br>Снятая на камеру редчайшая аномальная радуга поразила американцев.<br>В тематическом парке развлечений «Остров Мечты», который откроется в Нагатинской пойме на юге Москве в 2019 году, началось создание копии фасада «Дома костей» (Casa Batllo) каталонского архитектора Антонио Гауди.",
          "description":""
        },
        {
          "param_type":"submit",
          "label":"Распознать",
          "name":"upload_text",
          "is_visible": true,
          "preset_value":"",
          "description":""
        }
      ],
      "output_params": [{
        "param_type":"output_text",
        "label":"Тематика:",
        "name":"predicted_text",
        "is_visible": true,
        "description":""
      }]
    }
  },
    "demo_types": {
    "image":{
      "title":"Image demos"
    },
    "text":{
      "title":"Text demos"
    },
    "audio":{
      "title":"Audio demos"
    }
  }
}